%YAML 1.1
%TAG !u! tag:unity3d.com,2011:
--- !u!1045 &1
EditorBuildSettings:
  m_ObjectHideFlags: 0
  serializedVersion: 2
  m_Scenes:
  - enabled: 1
    path: Assets/Scenes/AR_Gamplay.unity
    guid: 0f1d92ac5a46aa941aaabf2a1040dccf
  - enabled: 1
    path: Assets/Scenes/XRToolKitExample.unity
    guid: b31d9ad29cc8d484a86042d1137b8860
  m_configObjects:
    UnityEditor.XR.ARCore.ARCoreSettings: {fileID: 11400000, guid: 84548edb85b0721448694198a03e0e58,
      type: 2}
    com.unity.input.settings: {fileID: 11400000, guid: 2a4589cd9deea2f49a57ff2d03502cab,
      type: 2}
    com.unity.xr.management.loader_settings: {fileID: 11400000, guid: a8c7fb219c5367d4aa5d46e85ee88d19,
      type: 2}
